https://twiki.cern.ch/twiki/bin/view/Sandbox/RuggeroTurraSandbox#H125
short_name

PowhegPy8_NNLOPS_ggH125
-rw-r--r--. 1 mungo   zp   14G 5月   5 12:47 /eos/atlas/atlascerngroupdisk/phys-higgs/HSG1/MxAOD/h025/mc16d/Nominal/mc16d.PowhegPy8_NNLOPS_ggH125.MxAODDetailed.e5607_s3126_r10201_p4097_h025.root
-rw-r--r--. 1 mungo   zp   14G 5月   3 15:33 /eos/atlas/atlascerngroupdisk/phys-higgs/HSG1/MxAOD/h025/mc16a/Nominal/mc16a.PowhegPy8_NNLOPS_ggH125.MxAODDetailed.e5607_s3126_r9364_p4097_h025.root
/eos/atlas/atlascerngroupdisk/phys-higgs/HSG1/MxAOD/h025/mc16a/Nominal/mc16a.PowhegH713_NNLOPS_ggH125.MxAODDetailedNoSkim.e7928_s3126_r9364_p4097_h025.root:
-rwxr-xr-x. 1 bstamas zp 1.6G 5月  18 23:10 mc16a.PowhegH713_NNLOPS_ggH125.MxAODDetailedNoSkim.e7928_s3126_r9364_p4097_h025.015.root
-rwxr-xr-x. 1 bstamas zp 555M 5月  18 23:10 mc16a.PowhegH713_NNLOPS_ggH125.MxAODDetailedNoSkim.e7928_s3126_r9364_p4097_h025.016.root
-rwxr-xr-x. 1 bstamas zp 1.8G 5月  18 23:10 mc16a.PowhegH713_NNLOPS_ggH125.MxAODDetailedNoSkim.e7928_s3126_r9364_p4097_h025.014.root
-rwxr-xr-x. 1 bstamas zp 1.7G 5月  18 23:09 mc16a.PowhegH713_NNLOPS_ggH125.MxAODDetailedNoSkim.e7928_s3126_r9364_p4097_h025.012.root
-rwxr-xr-x. 1 bstamas zp 1.6G 5月  18 23:09 mc16a.PowhegH713_NNLOPS_ggH125.MxAODDetailedNoSkim.e7928_s3126_r9364_p4097_h025.013.root
-rwxr-xr-x. 1 bstamas zp 1.7G 5月  18 23:08 mc16a.PowhegH713_NNLOPS_ggH125.MxAODDetailedNoSkim.e7928_s3126_r9364_p4097_h025.011.root
-rwxr-xr-x. 1 bstamas zp 1.7G 5月  18 23:08 mc16a.PowhegH713_NNLOPS_ggH125.MxAODDetailedNoSkim.e7928_s3126_r9364_p4097_h025.010.root
-rwxr-xr-x. 1 bstamas zp 1.7G 5月  18 23:08 mc16a.PowhegH713_NNLOPS_ggH125.MxAODDetailedNoSkim.e7928_s3126_r9364_p4097_h025.009.root
-rwxr-xr-x. 1 bstamas zp 1.7G 5月  18 23:07 mc16a.PowhegH713_NNLOPS_ggH125.MxAODDetailedNoSkim.e7928_s3126_r9364_p4097_h025.008.root
-rwxr-xr-x. 1 bstamas zp 1.7G 5月  18 23:07 mc16a.PowhegH713_NNLOPS_ggH125.MxAODDetailedNoSkim.e7928_s3126_r9364_p4097_h025.006.root
-rwxr-xr-x. 1 bstamas zp 1.7G 5月  18 23:07 mc16a.PowhegH713_NNLOPS_ggH125.MxAODDetailedNoSkim.e7928_s3126_r9364_p4097_h025.007.root
-rwxr-xr-x. 1 bstamas zp 3.9G 5月  18 23:06 mc16a.PowhegH713_NNLOPS_ggH125.MxAODDetailedNoSkim.e7928_s3126_r9364_p4097_h025.001.root
-rwxr-xr-x. 1 bstamas zp 1.7G 5月  18 23:05 mc16a.PowhegH713_NNLOPS_ggH125.MxAODDetailedNoSkim.e7928_s3126_r9364_p4097_h025.005.root
-rwxr-xr-x. 1 bstamas zp 1.7G 5月  18 23:05 mc16a.PowhegH713_NNLOPS_ggH125.MxAODDetailedNoSkim.e7928_s3126_r9364_p4097_h025.004.root
-rwxr-xr-x. 1 bstamas zp 1.7G 5月  18 23:04 mc16a.PowhegH713_NNLOPS_ggH125.MxAODDetailedNoSkim.e7928_s3126_r9364_p4097_h025.003.root
-rwxr-xr-x. 1 bstamas zp 1.7G 5月  18 23:04 mc16a.PowhegH713_NNLOPS_ggH125.MxAODDetailedNoSkim.e7928_s3126_r9364_p4097_h025.002.root
/eos/atlas/atlascerngroupdisk/phys-higgs/HSG1/MxAOD/h025/mc16d/Nominal/mc16d.PowhegH713_NNLOPS_ggH125.MxAODDetailedNoSkim.e7928_s3126_r10201_p4097_h025.root:
-rwxr-xr-x. 1 bstamas zp 1.6G 5月  18 23:02 mc16d.PowhegH713_NNLOPS_ggH125.MxAODDetailedNoSkim.e7928_s3126_r10201_p4097_h025.008.root
-rwxr-xr-x. 1 bstamas zp 508M 5月  18 23:02 mc16d.PowhegH713_NNLOPS_ggH125.MxAODDetailedNoSkim.e7928_s3126_r10201_p4097_h025.009.root
-rwxr-xr-x. 1 bstamas zp 1.7G 5月  18 23:02 mc16d.PowhegH713_NNLOPS_ggH125.MxAODDetailedNoSkim.e7928_s3126_r10201_p4097_h025.007.root
-rwxr-xr-x. 1 bstamas zp 4.2G 5月  18 23:02 mc16d.PowhegH713_NNLOPS_ggH125.MxAODDetailedNoSkim.e7928_s3126_r10201_p4097_h025.006.root
-rwxr-xr-x. 1 bstamas zp 4.2G 5月  18 22:59 mc16d.PowhegH713_NNLOPS_ggH125.MxAODDetailedNoSkim.e7928_s3126_r10201_p4097_h025.004.root
-rwxr-xr-x. 1 bstamas zp 4.2G 5月  18 22:59 mc16d.PowhegH713_NNLOPS_ggH125.MxAODDetailedNoSkim.e7928_s3126_r10201_p4097_h025.005.root
-rwxr-xr-x. 1 bstamas zp 4.2G 5月  18 22:56 mc16d.PowhegH713_NNLOPS_ggH125.MxAODDetailedNoSkim.e7928_s3126_r10201_p4097_h025.002.root
-rwxr-xr-x. 1 bstamas zp 4.2G 5月  18 22:54 mc16d.PowhegH713_NNLOPS_ggH125.MxAODDetailedNoSkim.e7928_s3126_r10201_p4097_h025.003.root
-rwxr-xr-x. 1 bstamas zp 3.3G 5月  18 22:54 mc16d.PowhegH713_NNLOPS_ggH125.MxAODDetailedNoSkim.e7928_s3126_r10201_p4097_h025.001.root
/eos/atlas/atlascerngroupdisk/phys-higgs/HSG1/MxAOD/h025/mc16e/Nominal/mc16e.PowhegH713_NNLOPS_ggH125.MxAODDetailedNoSkim.e7928_s3126_r10724_p4097_h025.root:
-rw-r--r--. 1 bstamas zp 1.9G 5月  18 22:47 mc16e.PowhegH713_NNLOPS_ggH125.MxAODDetailedNoSkim.e7928_s3126_r10724_p4097_h025.017.root
-rw-r--r--. 1 bstamas zp 2.4G 5月  18 22:46 mc16e.PowhegH713_NNLOPS_ggH125.MxAODDetailedNoSkim.e7928_s3126_r10724_p4097_h025.016.root
-rw-r--r--. 1 bstamas zp 339M 5月  18 22:45 mc16e.PowhegH713_NNLOPS_ggH125.MxAODDetailedNoSkim.e7928_s3126_r10724_p4097_h025.018.root
-rw-r--r--. 1 bstamas zp 2.2G 5月  18 22:44 mc16e.PowhegH713_NNLOPS_ggH125.MxAODDetailedNoSkim.e7928_s3126_r10724_p4097_h025.015.root
-rw-r--r--. 1 bstamas zp 2.1G 5月  18 22:42 mc16e.PowhegH713_NNLOPS_ggH125.MxAODDetailedNoSkim.e7928_s3126_r10724_p4097_h025.014.root
-rw-r--r--. 1 bstamas zp 2.2G 5月  18 22:40 mc16e.PowhegH713_NNLOPS_ggH125.MxAODDetailedNoSkim.e7928_s3126_r10724_p4097_h025.012.root
-rw-r--r--. 1 bstamas zp 2.2G 5月  18 22:40 mc16e.PowhegH713_NNLOPS_ggH125.MxAODDetailedNoSkim.e7928_s3126_r10724_p4097_h025.013.root
-rw-r--r--. 1 bstamas zp 2.2G 5月  18 22:39 mc16e.PowhegH713_NNLOPS_ggH125.MxAODDetailedNoSkim.e7928_s3126_r10724_p4097_h025.011.root
-rw-r--r--. 1 bstamas zp 2.2G 5月  18 22:37 mc16e.PowhegH713_NNLOPS_ggH125.MxAODDetailedNoSkim.e7928_s3126_r10724_p4097_h025.009.root
-rw-r--r--. 1 bstamas zp 2.2G 5月  18 22:36 mc16e.PowhegH713_NNLOPS_ggH125.MxAODDetailedNoSkim.e7928_s3126_r10724_p4097_h025.010.root
-rw-r--r--. 1 bstamas zp 3.3G 5月  18 22:35 mc16e.PowhegH713_NNLOPS_ggH125.MxAODDetailedNoSkim.e7928_s3126_r10724_p4097_h025.001.root
-rw-r--r--. 1 bstamas zp 3.4G 5月  18 22:33 mc16e.PowhegH713_NNLOPS_ggH125.MxAODDetailedNoSkim.e7928_s3126_r10724_p4097_h025.008.root
-rw-r--r--. 1 bstamas zp 3.4G 5月  18 22:32 mc16e.PowhegH713_NNLOPS_ggH125.MxAODDetailedNoSkim.e7928_s3126_r10724_p4097_h025.007.root
-rw-r--r--. 1 bstamas zp 3.4G 5月  18 22:32 mc16e.PowhegH713_NNLOPS_ggH125.MxAODDetailedNoSkim.e7928_s3126_r10724_p4097_h025.006.root
-rw-r--r--. 1 bstamas zp 3.4G 5月  18 22:31 mc16e.PowhegH713_NNLOPS_ggH125.MxAODDetailedNoSkim.e7928_s3126_r10724_p4097_h025.005.root
-rw-r--r--. 1 bstamas zp 3.4G 5月  18 22:31 mc16e.PowhegH713_NNLOPS_ggH125.MxAODDetailedNoSkim.e7928_s3126_r10724_p4097_h025.004.root
-rw-r--r--. 1 bstamas zp 3.4G 5月  18 22:30 mc16e.PowhegH713_NNLOPS_ggH125.MxAODDetailedNoSkim.e7928_s3126_r10724_p4097_h025.002.root
-rw-r--r--. 1 bstamas zp 3.4G 5月  18 22:30 mc16e.PowhegH713_NNLOPS_ggH125.MxAODDetailedNoSkim.e7928_s3126_r10724_p4097_h025.003.root
/eos/atlas/atlascerngroupdisk/phys-higgs/HSG1/MxAOD/h025/mc16e/Nominal/mc16e.PowhegPy8_NNLOPS_ggH125.MxAODDetailed.e5607_s3126_r10724_p4097_h025.root:
-rw-------. 1 mungo zp 4.2G 5月   5 15:23 mc16e.PowhegPy8_NNLOPS_ggH125.MxAODDetailed.e5607_s3126_r10724_p4097_h025.006.root
-rw-------. 1 mungo zp 4.0G 5月   5 15:22 mc16e.PowhegPy8_NNLOPS_ggH125.MxAODDetailed.e5607_s3126_r10724_p4097_h025.008.root
-rw-------. 1 mungo zp 4.0G 5月   5 15:22 mc16e.PowhegPy8_NNLOPS_ggH125.MxAODDetailed.e5607_s3126_r10724_p4097_h025.010.root
-rw-------. 1 mungo zp 254M 5月   5 15:18 mc16e.PowhegPy8_NNLOPS_ggH125.MxAODDetailed.e5607_s3126_r10724_p4097_h025.011.root
-rwx------. 1 mungo zp 4.2G 5月   5 15:18 mc16e.PowhegPy8_NNLOPS_ggH125.MxAODDetailed.e5607_s3126_r10724_p4097_h025.003.root
-rw-------. 1 mungo zp 676M 5月   5 15:17 mc16e.PowhegPy8_NNLOPS_ggH125.MxAODDetailed.e5607_s3126_r10724_p4097_h025.009.root
-rwx------. 1 mungo zp 2.2G 5月   5 15:15 mc16e.PowhegPy8_NNLOPS_ggH125.MxAODDetailed.e5607_s3126_r10724_p4097_h025.005.root
-rwx------. 1 mungo zp 1.4G 5月   5 15:15 mc16e.PowhegPy8_NNLOPS_ggH125.MxAODDetailed.e5607_s3126_r10724_p4097_h025.002.root
-rwx------. 1 mungo zp 1.5G 5月   5 15:14 mc16e.PowhegPy8_NNLOPS_ggH125.MxAODDetailed.e5607_s3126_r10724_p4097_h025.004.root
-rw-------. 1 mungo zp 847M 5月   5 15:14 mc16e.PowhegPy8_NNLOPS_ggH125.MxAODDetailed.e5607_s3126_r10724_p4097_h025.001.root

PowhegPy8_NNPDF30_VBFH125
no way

PowhegPy8EG_NNPDF30_VBFH125
-rw-r--r--. 1 bstamas zp   11G 6月  21 17:35 /eos/atlas/atlascerngroupdisk/phys-higgs/HSG1/MxAOD/h025/mc16a/Nominal/mc16a.PowhegPy8EG_NNPDF30_VBFH125.MxAODDetailedNoSkim.e6970_s3126_r9364_p4097_h025.root
-rw-r--r--. 1 bstamas zp   15G 6月  19 14:50 /eos/atlas/atlascerngroupdisk/phys-higgs/HSG1/MxAOD/h025/mc16e/Nominal/mc16e.PowhegPy8EG_NNPDF30_VBFH125.MxAODDetailedNoSkim.e6970_s3126_r10724_p4097_h025.root
-rw-r--r--. 1 bstamas zp   15G 6月  19 14:11 /eos/atlas/atlascerngroupdisk/phys-higgs/HSG1/MxAOD/h025/mc16d/Nominal/mc16d.PowhegPy8EG_NNPDF30_VBFH125.MxAODDetailedNoSkim.e6970_s3126_r10201_p4097_h025.root
-rw-r--r--. 1 bstamas zp   12G 5月  15 00:37 /eos/atlas/atlascerngroupdisk/phys-higgs/HSG1/MxAOD/h025/mc16e/Nominal/mc16e.PowhegH713_VBF125.MxAODDetailedNoSkim.e7929_s3126_r10724_p4097_h025.root
-rw-r--r--. 1 bstamas zp   13G 5月  14 23:24 /eos/atlas/atlascerngroupdisk/phys-higgs/HSG1/MxAOD/h025/mc16d/Nominal/mc16d.PowhegH713_VBF125.MxAODDetailedNoSkim.e7929_s3126_r10201_p4097_h025.root
-rw-r--r--. 1 bstamas zp  9.4G 5月  14 21:08 /eos/atlas/atlascerngroupdisk/phys-higgs/HSG1/MxAOD/h025/mc16a/Nominal/mc16a.PowhegH713_VBF125.MxAODDetailedNoSkim.e7929_s3126_r9364_p4097_h025.root
-rw-r--r--. 1 mungo   zp  7.3G 5月   4 23:58 /eos/atlas/atlascerngroupdisk/phys-higgs/HSG1/MxAOD/h025/mc16e/Nominal/mc16e.PowhegPy8EG_NNPDF30_VBFH125.MxAODDetailed.e6970_s3126_r10724_p4097_h025.root
-rw-r--r--. 1 mungo   zp  7.3G 5月   3 17:46 /eos/atlas/atlascerngroupdisk/phys-higgs/HSG1/MxAOD/h025/mc16d/Nominal/mc16d.PowhegPy8EG_NNPDF30_VBFH125.MxAODDetailed.e6970_s3126_r10201_p4097_h025.root
-rw-r--r--. 1 mungo   zp  5.7G 5月   3 15:50 /eos/atlas/atlascerngroupdisk/phys-higgs/HSG1/MxAOD/h025/mc16a/Nominal/mc16a.PowhegPy8EG_NNPDF30_VBFH125.MxAODDetailed.e6970_s3126_r9364_p4097_h025.root

PowhegPy8_WmH125J
PowhegPy8_WpH125J
PowhegPy8_ZH125J
-rw-r--r--. 1 bstamas zp  1.2G 5月  15 00:41 /eos/atlas/atlascerngroupdisk/phys-higgs/HSG1/MxAOD/h025/mc16e/Nominal/mc16e.PowhegH713_WmH125J.MxAODDetailedNoSkim.e7929_s3126_r10724_p4097_h025.root
-rw-r--r--. 1 bstamas zp  1.2G 5月  14 23:27 /eos/atlas/atlascerngroupdisk/phys-higgs/HSG1/MxAOD/h025/mc16d/Nominal/mc16d.PowhegH713_WmH125J.MxAODDetailedNoSkim.e7929_s3126_r10201_p4097_h025.root
-rw-r--r--. 1 bstamas zp  1.2G 5月  14 21:11 /eos/atlas/atlascerngroupdisk/phys-higgs/HSG1/MxAOD/h025/mc16a/Nominal/mc16a.PowhegH713_WmH125J.MxAODDetailedNoSkim.e7929_s3126_r9364_p4097_h025.root
-rw-r--r--. 1 mungo   zp  654M 5月   3 17:47 /eos/atlas/atlascerngroupdisk/phys-higgs/HSG1/MxAOD/h025/mc16d/Nominal/mc16d.PowhegPy8_WmH125J.MxAODDetailed.e5734_s3126_r10201_p4097_h025.root
-rw-r--r--. 1 mungo   zp  721M 5月   3 17:20 /eos/atlas/atlascerngroupdisk/phys-higgs/HSG1/MxAOD/h025/mc16e/Nominal/mc16e.PowhegPy8_WmH125J.MxAODDetailed.e5734_s3126_r10724_p4097_h025.root
-rw-r--r--. 1 mungo   zp  721M 5月   3 15:50 /eos/atlas/atlascerngroupdisk/phys-higgs/HSG1/MxAOD/h025/mc16a/Nominal/mc16a.PowhegPy8_WmH125J.MxAODDetailed.e5734_s3126_r9364_p4097_h025.root

-rw-r--r--. 1 bstamas zp  1.2G 5月  15 00:43 /eos/atlas/atlascerngroupdisk/phys-higgs/HSG1/MxAOD/h025/mc16e/Nominal/mc16e.PowhegH713_WpH125J.MxAODDetailedNoSkim.e7929_s3126_r10724_p4097_h025.root
-rw-r--r--. 1 bstamas zp  1.2G 5月  14 23:32 /eos/atlas/atlascerngroupdisk/phys-higgs/HSG1/MxAOD/h025/mc16d/Nominal/mc16d.PowhegH713_WpH125J.MxAODDetailedNoSkim.e7929_s3126_r10201_p4097_h025.root
-rw-r--r--. 1 bstamas zp  1.2G 5月  14 21:22 /eos/atlas/atlascerngroupdisk/phys-higgs/HSG1/MxAOD/h025/mc16a/Nominal/mc16a.PowhegH713_WpH125J.MxAODDetailedNoSkim.e7929_s3126_r9364_p4097_h025.root
-rw-r--r--. 1 mungo   zp  520M 5月   5 11:58 /eos/atlas/atlascerngroupdisk/phys-higgs/HSG1/MxAOD/h025/mc16a/Nominal/mc16a.PowhegPy8_WpH125J.MxAODDetailed.e5734_s3126_r9364_p4097_h025.root
-rw-r--r--. 1 mungo   zp  655M 5月   3 17:49 /eos/atlas/atlascerngroupdisk/phys-higgs/HSG1/MxAOD/h025/mc16d/Nominal/mc16d.PowhegPy8_WpH125J.MxAODDetailed.e5734_s3126_r10201_p4097_h025.root
-rw-r--r--. 1 mungo   zp  654M 5月   3 17:20 /eos/atlas/atlascerngroupdisk/phys-higgs/HSG1/MxAOD/h025/mc16e/Nominal/mc16e.PowhegPy8_WpH125J.MxAODDetailed.e5734_s3126_r10724_p4097_h025.root

-rw-r--r--. 1 mungo   zp  3.0G 6月   8 11:34 /eos/atlas/atlascerngroupdisk/phys-higgs/HSG1/MxAOD/h025/mc16e/Nominal/mc16e.PowhegH713_ZH125J.MxAODDetailedNoSkim.e7929_s3126_r10724_p4097_h025.root
-rw-r--r--. 1 mungo   zp  3.0G 6月   8 11:12 /eos/atlas/atlascerngroupdisk/phys-higgs/HSG1/MxAOD/h025/mc16d/Nominal/mc16d.PowhegH713_ZH125J.MxAODDetailedNoSkim.e7929_s3126_r10201_p4097_h025.root
-rw-r--r--. 1 mungo   zp  2.9G 6月   8 11:08 /eos/atlas/atlascerngroupdisk/phys-higgs/HSG1/MxAOD/h025/mc16a/Nominal/mc16a.PowhegH713_ZH125J.MxAODDetailedNoSkim.e7929_s3126_r9364_p4097_h025.root
-rw-r--r--. 1 mungo   zp  1.4G 5月   6 11:00 /eos/atlas/atlascerngroupdisk/phys-higgs/HSG1/MxAOD/h025/mc16e/Nominal/mc16e.PowhegPy8_ZH125J.MxAODDetailed.e5743_s3126_r10724_p4097_h025.root
-rw-r--r--. 1 mungo   zp  1.3G 5月   3 17:50 /eos/atlas/atlascerngroupdisk/phys-higgs/HSG1/MxAOD/h025/mc16d/Nominal/mc16d.PowhegPy8_ZH125J.MxAODDetailed.e5743_s3126_r10201_p4097_h025.root
-rw-r--r--. 1 mungo   zp  1.3G 5月   3 15:52 /eos/atlas/atlascerngroupdisk/phys-higgs/HSG1/MxAOD/h025/mc16a/Nominal/mc16a.PowhegPy8_ZH125J.MxAODDetailed.e5743_s3126_r9364_p4097_h025.root



PowhegPy8_ggZH125
-rw-r--r--. 1 bstamas zp  320M 5月  15 00:43 /eos/atlas/atlascerngroupdisk/phys-higgs/HSG1/MxAOD/h025/mc16e/Nominal/mc16e.PowhegH713_ggZH125.MxAODDetailedNoSkim.e7929_s3126_r10724_p4097_h025.root
-rw-r--r--. 1 bstamas zp  320M 5月  14 23:33 /eos/atlas/atlascerngroupdisk/phys-higgs/HSG1/MxAOD/h025/mc16d/Nominal/mc16d.PowhegH713_ggZH125.MxAODDetailedNoSkim.e7929_s3126_r10201_p4097_h025.root
-rw-r--r--. 1 bstamas zp  314M 5月  14 21:24 /eos/atlas/atlascerngroupdisk/phys-higgs/HSG1/MxAOD/h025/mc16a/Nominal/mc16a.PowhegH713_ggZH125.MxAODDetailedNoSkim.e7929_s3126_r9364_p4097_h025.root
-rw-r--r--. 1 mungo   zp  184M 5月   3 17:51 /eos/atlas/atlascerngroupdisk/phys-higgs/HSG1/MxAOD/h025/mc16d/Nominal/mc16d.PowhegPy8_ggZH125.MxAODDetailed.e5762_s3126_r10201_p4097_h025.root
-rw-r--r--. 1 mungo   zp  183M 5月   3 17:21 /eos/atlas/atlascerngroupdisk/phys-higgs/HSG1/MxAOD/h025/mc16e/Nominal/mc16e.PowhegPy8_ggZH125.MxAODDetailed.e5762_s3126_r10724_p4097_h025.root
-rw-r--r--. 1 mungo   zp  181M 5月   3 15:53 /eos/atlas/atlascerngroupdisk/phys-higgs/HSG1/MxAOD/h025/mc16a/Nominal/mc16a.PowhegPy8_ggZH125.MxAODDetailed.e5762_s3126_r9364_p4097_h025.root


PowhegPy8_ttH125 (tooooo looooooog)
PowhegPy8_ttH125_fixweight
drwxr-xr-x. 2 bstamas zp  4.0K 7月   7 13:33 mc16d.aMCnloPy8_ttH125_v260.MxAODDetailedNoSkim.e7176_s3126_r10201_p4097_h025.root
-rw-r--r--. 1 bstamas zp  9.5G 7月   6 10:40 mc16d.aMCnloH7_ttH125.MxAODDetailedNoSkim.e7612_s3126_r10201_p4097_h025.root
drwxr-xr-x. 2 bstamas zp  4.0K 7月   3 13:40 mc16d.aMCnloPy8_ttH125_v260.MxAODDetailed.e7176_s3126_r10201_p4097_h025.root
-rw-r--r--. 1 bstamas zp  6.0G 6月  29 10:32 mc16d.aMCnloH7_ttH125.MxAODDetailed.e7612_s3126_r10201_p4097_h025.root
-rw-r--r--. 1 bstamas zp   19G 5月  20 05:31 mc16d.PowhegHw7_ttH125_fixweight.MxAODDetailedNoSkim.e7488_s3126_r10201_p4097_h025.root
drwxr-xr-x. 2 mungo   zp  4.0K 5月   3 18:46 mc16d.PowhegPy8_ttH125_fixweight.MxAODDetailed.e7488_s3126_r10201_p4097_h025.root
drwxr-xr-x. 2 bstamas zp 4.0K 7月  10 09:02 mc16a.aMCnloPy8_ttH125_v260.MxAODDetailedNoSkim.e7176_s3126_r9364_p4097_h025.root
-rw-r--r--. 1 bstamas zp 7.2G 7月   6 10:05 mc16a.aMCnloH7_ttH125.MxAODDetailedNoSkim.e7612_s3126_r9364_p4097_h025.root
-rw-r--r--. 1 bstamas zp 4.6G 6月  29 10:18 mc16a.aMCnloH7_ttH125.MxAODDetailed.e7612_s3126_r9364_p4097_h025.root
drwxr-xr-x. 2 bstamas zp 4.0K 6月  29 10:08 mc16a.aMCnloPy8_ttH125_v260.MxAODDetailed.e7176_s3126_r9364_p4097_h025.root
-rw-r--r--. 1 bstamas zp  15G 5月  14 22:52 mc16a.PowhegHw7_ttH125_fixweight.MxAODDetailedNoSkim.e7488_s3126_r9364_p4097_h025.root
drwxr-xr-x. 2 mungo   zp 4.0K 5月   3 16:40 mc16a.PowhegPy8_ttH125_fixweight.MxAODDetailed.e7488_s3126_r9364_p4097_h025.root
-rw-r--r--. 1 bstamas zp  13G 7月   9 10:33 mc16e.aMCnloH7_ttH125.MxAODDetailedNoSkim.e7612_s3126_r10724_p4097_h025.root
drwxr-xr-x. 2 bstamas zp 4.0K 7月   6 10:42 mc16e.aMCnloPy8_ttH125_v260.MxAODDetailedNoSkim.e7176_s3126_r10724_p4097_h025.root
-rw-r--r--. 1 bstamas zp 7.9G 6月  29 11:17 mc16e.aMCnloH7_ttH125.MxAODDetailed.e7612_s3126_r10724_p4097_h025.root
drwxr-xr-x. 2 bstamas zp 4.0K 6月  29 10:33 mc16e.aMCnloPy8_ttH125_v260.MxAODDetailed.e7176_s3126_r10724_p4097_h025.root
drwxr-xr-x. 2 bstamas zp 4.0K 5月  18 22:29 mc16e.PowhegHw7_ttH125_fixweight.MxAODDetailedNoSkim.e7488_s3126_r10724_p4097_h025.root
drwxr-xr-x. 2 mungo   zp 4.0K 5月   3 17:59 mc16e.PowhegPy8_ttH125_fixweight.MxAODDetailed.e7488_s3126_r10724_p4097_h025.root



aMCnloPy8_tWH125
lrwxrwxrwx. 1 bstamas zp   114 7月   7 13:43 /eos/atlas/atlascerngroupdisk/phys-higgs/HSG1/MxAOD/h025/mc16e/Nominal/mc16e.aMCnloH7_tWH125.MxAODDetailedNoSkim.e7938_s3126_r10724_p4097_h025.root -> /eos/atlas/atlasgroupdisk/phys-higgs/dq2/rucio/group/phys-higgs/49/9b/group.phys-higgs.21818351._000001.MxAOD.root
lrwxrwxrwx. 1 bstamas zp   114 7月   7 13:42 /eos/atlas/atlascerngroupdisk/phys-higgs/HSG1/MxAOD/h025/mc16d/Nominal/mc16d.aMCnloH7_tWH125.MxAODDetailedNoSkim.e7938_s3126_r10201_p4097_h025.root -> /eos/atlas/atlasgroupdisk/phys-higgs/dq2/rucio/group/phys-higgs/2b/2b/group.phys-higgs.21818324._000001.MxAOD.root
lrwxrwxrwx. 1 bstamas zp   114 7月   7 13:41 /eos/atlas/atlascerngroupdisk/phys-higgs/HSG1/MxAOD/h025/mc16a/Nominal/mc16a.aMCnloH7_tWH125.MxAODDetailedNoSkim.e7938_s3126_r9364_p4097_h025.root -> /eos/atlas/atlasgroupdisk/phys-higgs/dq2/rucio/group/phys-higgs/fb/b3/group.phys-higgs.21818280._000001.MxAOD.root
-rw-r--r--. 1 bstamas zp  3.6G 6月  19 14:14 /eos/atlas/atlascerngroupdisk/phys-higgs/HSG1/MxAOD/h025/mc16e/Nominal/mc16e.aMCnloPy8_tWH125.MxAODDetailedNoSkim.e7425_s3126_r10724_p4097_h025.root
-rw-r--r--. 1 bstamas zp  2.8G 6月  19 13:38 /eos/atlas/atlascerngroupdisk/phys-higgs/HSG1/MxAOD/h025/mc16d/Nominal/mc16d.aMCnloPy8_tWH125.MxAODDetailedNoSkim.e7425_s3126_r10201_p4097_h025.root
-rw-r--r--. 1 bstamas zp  1.9G 6月  19 13:36 /eos/atlas/atlascerngroupdisk/phys-higgs/HSG1/MxAOD/h025/mc16a/Nominal/mc16a.aMCnloPy8_tWH125.MxAODDetailedNoSkim.e7425_s3126_r9364_p4097_h025.root
-rw-r--r--. 1 bstamas zp  3.6G 6月  11 12:36 /eos/atlas/atlascerngroupdisk/phys-higgs/HSG1/MxAOD/h025/mc16e/Nominal/mc16e.aMCnloPy8_tWH125_yt_plus2_CPalpha_0.MxAODDetailedNoSkim.e7816_s3126_r10724_p4097_h025.root
-rw-r--r--. 1 bstamas zp  3.6G 6月  11 12:34 /eos/atlas/atlascerngroupdisk/phys-higgs/HSG1/MxAOD/h025/mc16e/Nominal/mc16e.aMCnloPy8_tWH125_yt_plus0p5_CPalpha_0.MxAODDetailedNoSkim.e7816_s3126_r10724_p4097_h025.root
-rw-r--r--. 1 bstamas zp  3.6G 6月  11 12:32 /eos/atlas/atlascerngroupdisk/phys-higgs/HSG1/MxAOD/h025/mc16e/Nominal/mc16e.aMCnloPy8_tWH125_yt_minus1_CPalpha_0.MxAODDetailedNoSkim.e7816_s3126_r10724_p4097_h025.root
-rw-r--r--. 1 bstamas zp  3.6G 6月  11 12:30 /eos/atlas/atlascerngroupdisk/phys-higgs/HSG1/MxAOD/h025/mc16e/Nominal/mc16e.aMCnloPy8_tWH125_CPalpha_0.MxAODDetailedNoSkim.e7816_s3126_r10724_p4097_h025.root
-rw-r--r--. 1 bstamas zp  2.8G 6月  11 12:16 /eos/atlas/atlascerngroupdisk/phys-higgs/HSG1/MxAOD/h025/mc16d/Nominal/mc16d.aMCnloPy8_tWH125_yt_plus2_CPalpha_0.MxAODDetailedNoSkim.e7816_s3126_r10201_p4097_h025.root
-rw-r--r--. 1 bstamas zp  2.8G 6月  11 12:15 /eos/atlas/atlascerngroupdisk/phys-higgs/HSG1/MxAOD/h025/mc16d/Nominal/mc16d.aMCnloPy8_tWH125_yt_plus0p5_CPalpha_0.MxAODDetailedNoSkim.e7816_s3126_r10201_p4097_h025.root
-rw-r--r--. 1 bstamas zp  2.8G 6月  11 12:12 /eos/atlas/atlascerngroupdisk/phys-higgs/HSG1/MxAOD/h025/mc16d/Nominal/mc16d.aMCnloPy8_tWH125_yt_minus1_CPalpha_0.MxAODDetailedNoSkim.e7816_s3126_r10201_p4097_h025.root
-rw-r--r--. 1 bstamas zp  2.8G 6月  11 12:10 /eos/atlas/atlascerngroupdisk/phys-higgs/HSG1/MxAOD/h025/mc16d/Nominal/mc16d.aMCnloPy8_tWH125_CPalpha_0.MxAODDetailedNoSkim.e7816_s3126_r10201_p4097_h025.root
-rw-r--r--. 1 bstamas zp  1.5G 6月  11 11:57 /eos/atlas/atlascerngroupdisk/phys-higgs/HSG1/MxAOD/h025/mc16a/Nominal/mc16a.aMCnloPy8_tWH125_yt_plus2_CPalpha_0.MxAODDetailedNoSkim.e7816_s3126_r9364_p4095_h025.root
-rw-r--r--. 1 bstamas zp  1.9G 6月  11 11:56 /eos/atlas/atlascerngroupdisk/phys-higgs/HSG1/MxAOD/h025/mc16a/Nominal/mc16a.aMCnloPy8_tWH125_yt_plus0p5_CPalpha_0.MxAODDetailedNoSkim.e7816_s3126_r9364_p4097_h025.root
-rw-r--r--. 1 bstamas zp  1.9G 6月  11 11:54 /eos/atlas/atlascerngroupdisk/phys-higgs/HSG1/MxAOD/h025/mc16a/Nominal/mc16a.aMCnloPy8_tWH125_yt_minus1_CPalpha_0.MxAODDetailedNoSkim.e7816_s3126_r9364_p4097_h025.root
-rw-r--r--. 1 bstamas zp  1.9G 6月  11 11:53 /eos/atlas/atlascerngroupdisk/phys-higgs/HSG1/MxAOD/h025/mc16a/Nominal/mc16a.aMCnloPy8_tWH125_CPalpha_0.MxAODDetailedNoSkim.e7816_s3126_r9364_p4097_h025.root
-rw-r--r--. 1 mungo   zp  1.8G 5月   3 18:47 /eos/atlas/atlascerngroupdisk/phys-higgs/HSG1/MxAOD/h025/mc16d/Nominal/mc16d.aMCnloPy8_tWH125.MxAODDetailed.e7425_s3126_r10201_p4097_h025.root
-rw-r--r--. 1 mungo   zp  2.2G 5月   3 18:02 /eos/atlas/atlascerngroupdisk/phys-higgs/HSG1/MxAOD/h025/mc16e/Nominal/mc16e.aMCnloPy8_tWH125.MxAODDetailed.e7425_s3126_r10724_p4097_h025.root
-rw-r--r--. 1 mungo   zp  1.2G 5月   3 16:41 /eos/atlas/atlascerngroupdisk/phys-higgs/HSG1/MxAOD/h025/mc16a/Nominal/mc16a.aMCnloPy8_tWH125.MxAODDetailed.e7425_s3126_r9364_p4097_h025.root




aMCnloPy8_tHjb125_4fl
aMCnloPy8_tHjb125_4fl_shw_fix
lrwxrwxrwx. 1 bstamas zp   114 7月   6 10:41 /eos/atlas/atlascerngroupdisk/phys-higgs/HSG1/MxAOD/h025/mc16e/Nominal/mc16e.aMCnloH7_tHjb125.MxAODDetailedNoSkim.e7612_s3126_r10724_p4097_h025.root -> /eos/atlas/atlasgroupdisk/phys-higgs/dq2/rucio/group/phys-higgs/fa/d6/group.phys-higgs.21782232._000001.MxAOD.root
lrwxrwxrwx. 1 bstamas zp   114 7月   6 10:06 /eos/atlas/atlascerngroupdisk/phys-higgs/HSG1/MxAOD/h025/mc16d/Nominal/mc16d.aMCnloH7_tHjb125.MxAODDetailedNoSkim.e7612_s3126_r10201_p4097_h025.root -> /eos/atlas/atlasgroupdisk/phys-higgs/dq2/rucio/group/phys-higgs/a6/bd/group.phys-higgs.21782079._000001.MxAOD.root
lrwxrwxrwx. 1 bstamas zp   114 7月   6 09:40 /eos/atlas/atlascerngroupdisk/phys-higgs/HSG1/MxAOD/h025/mc16a/Nominal/mc16a.aMCnloH7_tHjb125.MxAODDetailedNoSkim.e7612_s3126_r9364_p4097_h025.root -> /eos/atlas/atlasgroupdisk/phys-higgs/dq2/rucio/group/phys-higgs/6d/e7/group.phys-higgs.21780943._000001.MxAOD.root
-rw-r--r--. 1 bstamas zp  873M 6月  23 16:08 /eos/atlas/atlascerngroupdisk/phys-higgs/HSG1/MxAOD/h025/mc16d/Nominal/mc16d.aMCnloPy8_tHjb125_4fl_shw_fix.MxAODDetailedNoSkim.e7305_s3126_r10201_p4097_h025.root
-rw-r--r--. 1 bstamas zp  1.2G 6月  19 14:12 /eos/atlas/atlascerngroupdisk/phys-higgs/HSG1/MxAOD/h025/mc16e/Nominal/mc16e.aMCnloPy8_tHjb125_4fl_shw_fix.MxAODDetailedNoSkim.e7305_s3126_r10724_p4097_h025.root
-rw-r--r--. 1 bstamas zp  661M 6月  19 13:34 /eos/atlas/atlascerngroupdisk/phys-higgs/HSG1/MxAOD/h025/mc16a/Nominal/mc16a.aMCnloPy8_tHjb125_4fl_shw_fix.MxAODDetailedNoSkim.e7305_s3126_r9364_p4097_h025.root
-rw-r--r--. 1 bstamas zp  1.1G 6月  11 12:40 /eos/atlas/atlascerngroupdisk/phys-higgs/HSG1/MxAOD/h025/mc16e/Nominal/mc16e.aMCnloPy8_tHjb125_yt_plus2_CPalpha_0.MxAODDetailedNoSkim.e7815_s3126_r10724_p4097_h025.root
-rw-r--r--. 1 bstamas zp  1.1G 6月  11 12:38 /eos/atlas/atlascerngroupdisk/phys-higgs/HSG1/MxAOD/h025/mc16e/Nominal/mc16e.aMCnloPy8_tHjb125_yt_plus0p5_CPalpha_0.MxAODDetailedNoSkim.e7815_s3126_r10724_p4097_h025.root
-rw-r--r--. 1 bstamas zp  5.2G 6月  11 12:38 /eos/atlas/atlascerngroupdisk/phys-higgs/HSG1/MxAOD/h025/mc16e/Nominal/mc16e.aMCnloPy8_tHjb125_yt_minus1_CPalpha_0.MxAODDetailedNoSkim.e7815_s3126_r10724_p4095_h025.root
-rw-r--r--. 1 bstamas zp  1.2G 6月  11 12:28 /eos/atlas/atlascerngroupdisk/phys-higgs/HSG1/MxAOD/h025/mc16e/Nominal/mc16e.aMCnloPy8_tHjb125_CPalpha_0.MxAODDetailedNoSkim.e7815_s3126_r10724_p4097_h025.root
-rw-r--r--. 1 bstamas zp  859M 6月  11 12:23 /eos/atlas/atlascerngroupdisk/phys-higgs/HSG1/MxAOD/h025/mc16d/Nominal/mc16d.aMCnloPy8_tHjb125_yt_plus2_CPalpha_0.MxAODDetailedNoSkim.e7815_s3126_r10201_p4097_h025.root
-rw-r--r--. 1 bstamas zp  858M 6月  11 12:22 /eos/atlas/atlascerngroupdisk/phys-higgs/HSG1/MxAOD/h025/mc16d/Nominal/mc16d.aMCnloPy8_tHjb125_yt_plus0p5_CPalpha_0.MxAODDetailedNoSkim.e7815_s3126_r10201_p4097_h025.root
-rw-r--r--. 1 bstamas zp  4.9G 6月  11 12:21 /eos/atlas/atlascerngroupdisk/phys-higgs/HSG1/MxAOD/h025/mc16d/Nominal/mc16d.aMCnloPy8_tHjb125_yt_minus1_CPalpha_0.MxAODDetailedNoSkim.e7815_s3126_r10201_p4097_h025.root
-rw-r--r--. 1 bstamas zp  872M 6月  11 12:09 /eos/atlas/atlascerngroupdisk/phys-higgs/HSG1/MxAOD/h025/mc16d/Nominal/mc16d.aMCnloPy8_tHjb125_CPalpha_0.MxAODDetailedNoSkim.e7815_s3126_r10201_p4097_h025.root
-rw-r--r--. 1 bstamas zp  643M 6月  11 12:00 /eos/atlas/atlascerngroupdisk/phys-higgs/HSG1/MxAOD/h025/mc16a/Nominal/mc16a.aMCnloPy8_tHjb125_yt_plus2_CPalpha_0.MxAODDetailedNoSkim.e7815_s3126_r9364_p4097_h025.root
-rw-r--r--. 1 bstamas zp  646M 6月  11 11:59 /eos/atlas/atlascerngroupdisk/phys-higgs/HSG1/MxAOD/h025/mc16a/Nominal/mc16a.aMCnloPy8_tHjb125_yt_plus0p5_CPalpha_0.MxAODDetailedNoSkim.e7815_s3126_r9364_p4097_h025.root
-rw-r--r--. 1 bstamas zp  2.7G 6月  11 11:58 /eos/atlas/atlascerngroupdisk/phys-higgs/HSG1/MxAOD/h025/mc16a/Nominal/mc16a.aMCnloPy8_tHjb125_yt_minus1_CPalpha_0.MxAODDetailedNoSkim.e7815_s3126_r9364_p4095_h025.root
-rw-r--r--. 1 bstamas zp  661M 6月  11 11:52 /eos/atlas/atlascerngroupdisk/phys-higgs/HSG1/MxAOD/h025/mc16a/Nominal/mc16a.aMCnloPy8_tHjb125_CPalpha_0.MxAODDetailedNoSkim.e7815_s3126_r9364_p4097_h025.root
-rw-r--r--. 1 mungo   zp  436M 5月   3 18:49 /eos/atlas/atlascerngroupdisk/phys-higgs/HSG1/MxAOD/h025/mc16d/Nominal/mc16d.aMCnloPy8_tHjb125_4fl_shw_fix.MxAODDetailed.e7305_s3126_r10201_p4097_h025.root
-rw-r--r--. 1 mungo   zp  571M 5月   3 18:02 /eos/atlas/atlascerngroupdisk/phys-higgs/HSG1/MxAOD/h025/mc16e/Nominal/mc16e.aMCnloPy8_tHjb125_4fl_shw_fix.MxAODDetailed.e7305_s3126_r10724_p4097_h025.root
-rw-r--r--. 1 mungo   zp  335M 5月   3 16:41 /eos/atlas/atlascerngroupdisk/phys-higgs/HSG1/MxAOD/h025/mc16a/Nominal/mc16a.aMCnloPy8_tHjb125_4fl_shw_fix.MxAODDetailed.e7305_s3126_r9364_p4097_h025.root


PowhegPy8_bbH125
-rw-r--r--. 1 104767 1307  403M 5月  13 09:38 /eos/atlas/atlascerngroupdisk/phys-higgs/HSG1/MxAOD/h025/mc16e/Nominal/mc16e.PowhegPy8_bbH125.MxAODDetailed.e6050_s3126_r10724_p4097_h025.root
-rw-r--r--. 1 104767 1307  296M 5月   3 19:02 /eos/atlas/atlascerngroupdisk/phys-higgs/HSG1/MxAOD/h025/mc16d/Nominal/mc16d.PowhegPy8_bbH125.MxAODDetailed.e6050_s3126_r10201_p4097_h025.root
-rw-r--r--. 1 104767 1307  236M 5月   3 16:41 /eos/atlas/atlascerngroupdisk/phys-higgs/HSG1/MxAOD/h025/mc16a/Nominal/mc16a.PowhegPy8_bbH125.MxAODDetailed.e6050_s3126_r9364_p4097_h025.root



